tests/golden/andsim.vcd
$date
   May 25, 2020
$end
$version
   VCD generator tool version 0.100000
$end
$timescale 1ps $end
$scope module TOP_LEVEL $end
$var wire 1 ! AND_GATE_IN_1 $end
$var wire 1 @ AND_GATE_IN_2 $end
$var wire 1 # AND_GATE_OUT $end
$upscope $end
$enddefinitions $end
#0
0!
0@
0#
#1
0!
0@
0#
#2
0!
0@
0#
#3
0!
0@
0#
#4
0!
0@
0#
#5
0!
0@
0#
#6
0!
0@
0#
#7
0!
0@
0#
#8
0!
0@
0#
#9
0!
0@
0#
#10
1!
0@
0#
#11
1!
0@
0#
#12
1!
0@
0#
#13
1!
0@
0#
#14
1!
0@
0#
#15
1!
0@
0#
#16
1!
0@
0#
#17
1!
0@
0#
#18
1!
0@
0#
#19
1!
0@
0#
#20
1!
1@
1#
#21
1!
1@
1#
#22
1!
1@
1#
#23
1!
1@
1#
#24
1!
1@
1#
#25
1!
1@
1#
#26
1!
1@
1#
#27
1!
1@
1#
#28
1!
1@
1#
#29
1!
1@
1#
#30
1!
1@
1#
#31
1!
1@
1#
#32
1!
1@
1#
#33
1!
1@
1#
#34
1!
1@
1#
#35
1!
1@
1#
#36
1!
1@
1#
#37
1!
1@
1#
#38
1!
1@
1#
#39
1!
1@
1#
#40
0!
0@
0#
#41
0!
0@
0#
#42
0!
0@
0#
#43
0!
0@
0#
#44
0!
0@
0#
#45
0!
0@
0#
#46
0!
0@
0#
#47
0!
0@
0#
#48
0!
0@
0#
#49
0!
0@
0#
#50
1!
1@
1#
#51
1!
1@
1#
#52
1!
1@
1#
#53
1!
1@
1#
#54
1!
1@
1#
#55
1!
1@
1#
#56
1!
1@
1#
#57
1!
1@
1#
#58
1!
1@
1#
#59
1!
1@
1#
#60
0!
1@
0#
#61
0!
1@
0#
#62
0!
1@
0#
#63
0!
1@
0#
#64
0!
1@
0#
#65
0!
1@
0#
#66
0!
1@
0#
#67
0!
1@
0#
#68
0!
1@
0#
#69
0!
1@
0#
#70
0!
1@
0#
#71
0!
1@
0#
#72
0!
1@
0#
#73
0!
1@
0#
#74
0!
1@
0#
#75
0!
1@
0#
#76
0!
1@
0#
#77
0!
1@
0#
#78
0!
1@
0#
#79
0!
1@
0#
#80
1!
0@
0#
#81
1!
0@
0#
#82
1!
0@
0#
#83
1!
0@
0#
#84
1!
0@
0#
#85
1!
0@
0#
#86
1!
0@
0#
#87
1!
0@
0#
#88
1!
0@
0#
#89
1!
0@
0#
#90
0!
0@
0#
#91
0!
0@
0#
#92
0!
0@
0#
#93
0!
0@
0#
#94
0!
0@
0#
#95
0!
0@
0#
#96
0!
0@
0#
#97
0!
0@
0#
#98
0!
0@
0#
#99
0!
0@
0#
