tests/golden/circuit.vcd
$date
   May 25, 2020
$end
$version
   VCD generator tool version 0.100000
$end
$timescale 1ps $end
$scope module TOP_LEVEL $end
$var wire 1 ! AND1_GATE_IN_1 $end
$var wire 1 @ AND1_GATE_IN_2 $end
$var wire 1 # AND1_GATE_OUT $end
$var wire 1 $ OR_GATE_IN_1 $end
$var wire 1 % OR_GATE_IN_2 $end
$var wire 1 ^ OR_GATE_OUT $end
$var wire 1 & AND2_GATE_IN_1 $end
$var wire 1 * AND2_GATE_IN_2 $end
$var wire 1 ( AND2_GATE_OUT $end
$upscope $end
$enddefinitions $end
#0
0!
0@
0#
#0
0$
0%
0^
#0
0&
0*
0(
#1
0!
0@
0#
#1
0$
0%
0^
#1
0&
0*
0(
#2
0!
0@
0#
#2
0$
0%
0^
#2
0&
0*
0(
#3
0!
0@
0#
#3
0$
0%
0^
#3
0&
0*
0(
#4
0!
0@
0#
#4
0$
0%
0^
#4
0&
0*
0(
#5
0!
0@
0#
#5
0$
0%
0^
#5
0&
0*
0(
#6
0!
0@
0#
#6
0$
0%
0^
#6
0&
0*
0(
#7
0!
0@
0#
#7
0$
0%
0^
#7
0&
0*
0(
#8
0!
0@
0#
#8
0$
0%
0^
#8
0&
0*
0(
#9
0!
0@
0#
#9
0$
0%
0^
#9
0&
0*
0(
#10
1!
0@
0#
#10
1$
1%
1^
#10
0&
1*
0(
#11
1!
0@
0#
#11
1$
1%
1^
#11
0&
1*
0(
#12
1!
0@
0#
#12
1$
1%
1^
#12
0&
1*
0(
#13
1!
0@
0#
#13
1$
1%
1^
#13
0&
1*
0(
#14
1!
0@
0#
#14
1$
1%
1^
#14
0&
1*
0(
#15
1!
0@
0#
#15
1$
1%
1^
#15
0&
1*
0(
#16
1!
0@
0#
#16
1$
1%
1^
#16
0&
1*
0(
#17
1!
0@
0#
#17
1$
1%
1^
#17
0&
1*
0(
#18
1!
0@
0#
#18
1$
1%
1^
#18
0&
1*
0(
#19
1!
0@
0#
#19
1$
1%
1^
#19
0&
1*
0(
#20
1!
1@
1#
#20
0$
0%
0^
#20
1&
0*
0(
#21
1!
1@
1#
#21
0$
0%
0^
#21
1&
0*
0(
#22
1!
1@
1#
#22
0$
0%
0^
#22
1&
0*
0(
#23
1!
1@
1#
#23
0$
0%
0^
#23
1&
0*
0(
#24
1!
1@
1#
#24
0$
0%
0^
#24
1&
0*
0(
#25
1!
1@
1#
#25
0$
0%
0^
#25
1&
0*
0(
#26
1!
1@
1#
#26
0$
0%
0^
#26
1&
0*
0(
#27
1!
1@
1#
#27
0$
0%
0^
#27
1&
0*
0(
#28
1!
1@
1#
#28
0$
0%
0^
#28
1&
0*
0(
#29
1!
1@
1#
#29
0$
0%
0^
#29
1&
0*
0(
#30
1!
1@
1#
#30
0$
1%
1^
#30
1&
1*
1(
#31
1!
1@
1#
#31
0$
1%
1^
#31
1&
1*
1(
#32
1!
1@
1#
#32
0$
1%
1^
#32
1&
1*
1(
#33
1!
1@
1#
#33
0$
1%
1^
#33
1&
1*
1(
#34
1!
1@
1#
#34
0$
1%
1^
#34
1&
1*
1(
#35
1!
1@
1#
#35
0$
1%
1^
#35
1&
1*
1(
#36
1!
1@
1#
#36
0$
1%
1^
#36
1&
1*
1(
#37
1!
1@
1#
#37
0$
1%
1^
#37
1&
1*
1(
#38
1!
1@
1#
#38
0$
1%
1^
#38
1&
1*
1(
#39
1!
1@
1#
#39
0$
1%
1^
#39
1&
1*
1(
#40
0!
1@
0#
#40
1$
0%
1^
#40
0&
1*
0(
#41
0!
1@
0#
#41
1$
0%
1^
#41
0&
1*
0(
#42
0!
1@
0#
#42
1$
0%
1^
#42
0&
1*
0(
#43
0!
1@
0#
#43
1$
0%
1^
#43
0&
1*
0(
#44
0!
1@
0#
#44
1$
0%
1^
#44
0&
1*
0(
#45
0!
1@
0#
#45
1$
0%
1^
#45
0&
1*
0(
#46
0!
1@
0#
#46
1$
0%
1^
#46
0&
1*
0(
#47
0!
1@
0#
#47
1$
0%
1^
#47
0&
1*
0(
#48
0!
1@
0#
#48
1$
0%
1^
#48
0&
1*
0(
#49
0!
1@
0#
#49
1$
0%
1^
#49
0&
1*
0(
#50
0!
0@
0#
#50
0$
0%
0^
#50
0&
0*
0(
#51
0!
0@
0#
#51
0$
0%
0^
#51
0&
0*
0(
#52
0!
0@
0#
#52
0$
0%
0^
#52
0&
0*
0(
#53
0!
0@
0#
#53
0$
0%
0^
#53
0&
0*
0(
#54
0!
0@
0#
#54
0$
0%
0^
#54
0&
0*
0(
#55
0!
0@
0#
#55
0$
0%
0^
#55
0&
0*
0(
#56
0!
0@
0#
#56
0$
0%
0^
#56
0&
0*
0(
#57
0!
0@
0#
#57
0$
0%
0^
#57
0&
0*
0(
#58
0!
0@
0#
#58
0$
0%
0^
#58
0&
0*
0(
#59
0!
0@
0#
#59
0$
0%
0^
#59
0&
0*
0(
#60
1!
0@
0#
#60
1$
1%
1^
#60
0&
1*
0(
#61
1!
0@
0#
#61
1$
1%
1^
#61
0&
1*
0(
#62
1!
0@
0#
#62
1$
1%
1^
#62
0&
1*
0(
#63
1!
0@
0#
#63
1$
1%
1^
#63
0&
1*
0(
#64
1!
0@
0#
#64
1$
1%
1^
#64
0&
1*
0(
#65
1!
0@
0#
#65
1$
1%
1^
#65
0&
1*
0(
#66
1!
0@
0#
#66
1$
1%
1^
#66
0&
1*
0(
#67
1!
0@
0#
#67
1$
1%
1^
#67
0&
1*
0(
#68
1!
0@
0#
#68
1$
1%
1^
#68
0&
1*
0(
#69
1!
0@
0#
#69
1$
1%
1^
#69
0&
1*
0(
#70
0!
0@
0#
#70
0$
1%
1^
#70
0&
1*
0(
#71
0!
0@
0#
#71
0$
1%
1^
#71
0&
1*
0(
#72
0!
0@
0#
#72
0$
1%
1^
#72
0&
1*
0(
#73
0!
0@
0#
#73
0$
1%
1^
#73
0&
1*
0(
#74
0!
0@
0#
#74
0$
1%
1^
#74
0&
1*
0(
#75
0!
0@
0#
#75
0$
1%
1^
#75
0&
1*
0(
#76
0!
0@
0#
#76
0$
1%
1^
#76
0&
1*
0(
#77
0!
0@
0#
#77
0$
1%
1^
#77
0&
1*
0(
#78
0!
0@
0#
#78
0$
1%
1^
#78
0&
1*
0(
#79
0!
0@
0#
#79
0$
1%
1^
#79
0&
1*
0(
#80
1!
1@
1#
#80
1$
0%
1^
#80
1&
1*
1(
#81
1!
1@
1#
#81
1$
0%
1^
#81
1&
1*
1(
#82
1!
1@
1#
#82
1$
0%
1^
#82
1&
1*
1(
#83
1!
1@
1#
#83
1$
0%
1^
#83
1&
1*
1(
#84
1!
1@
1#
#84
1$
0%
1^
#84
1&
1*
1(
#85
1!
1@
1#
#85
1$
0%
1^
#85
1&
1*
1(
#86
1!
1@
1#
#86
1$
0%
1^
#86
1&
1*
1(
#87
1!
1@
1#
#87
1$
0%
1^
#87
1&
1*
1(
#88
1!
1@
1#
#88
1$
0%
1^
#88
1&
1*
1(
#89
1!
1@
1#
#89
1$
0%
1^
#89
1&
1*
1(
#90
0!
0@
0#
#90
1$
1%
1^
#90
0&
1*
0(
#91
0!
0@
0#
#91
1$
1%
1^
#91
0&
1*
0(
#92
0!
0@
0#
#92
1$
1%
1^
#92
0&
1*
0(
#93
0!
0@
0#
#93
1$
1%
1^
#93
0&
1*
0(
#94
0!
0@
0#
#94
1$
1%
1^
#94
0&
1*
0(
#95
0!
0@
0#
#95
1$
1%
1^
#95
0&
1*
0(
#96
0!
0@
0#
#96
1$
1%
1^
#96
0&
1*
0(
#97
0!
0@
0#
#97
1$
1%
1^
#97
0&
1*
0(
#98
0!
0@
0#
#98
1$
1%
1^
#98
0&
1*
0(
#99
0!
0@
0#
#99
1$
1%
1^
#99
0&
1*
0(
