tests/golden/flop.vcd
$date
   May 25, 2020
$end
$version
   VCD generator tool version 0.100000
$end
$timescale 1ps $end
$scope module TOP_LEVEL $end
$var wire 32 ! Reg_IN $end
$var wire 1 @ Reg_RST $end
$var wire 32 # Reg_OUT $end
$upscope $end
$enddefinitions $end
#0
b00000000000000000000000000000000 !
0@
b00000000000000000000000000000000 #
#1
b00000000000000000000000000000000 !
0@
b00000000000000000000000000000000 #
#2
b00000000000000000000000000000000 !
0@
b00000000000000000000000000000000 #
#3
b00000000000000000000000000000000 !
0@
b00000000000000000000000000000000 #
#4
b00000000000000000000000000000000 !
0@
b00000000000000000000000000000000 #
#5
b00000000000000000000000000000000 !
0@
b00000000000000000000000000000000 #
#6
b00000000000000000000000000000000 !
0@
b00000000000000000000000000000000 #
#7
b00000000000000000000000000000000 !
0@
b00000000000000000000000000000000 #
#8
b00000000000000000000000000000000 !
0@
b00000000000000000000000000000000 #
#9
b00000000000000000000000000000000 !
0@
b00000000000000000000000000000000 #
#10
b00000000000000000000000000000011 !
0@
b00000000000000000000000000000000 #
#11
b00000000000000000000000000000011 !
0@
b00000000000000000000000000000011 #
#12
b00000000000000000000000000000011 !
0@
b00000000000000000000000000000011 #
#13
b00000000000000000000000000000011 !
0@
b00000000000000000000000000000011 #
#14
b00000000000000000000000000000011 !
0@
b00000000000000000000000000000011 #
#15
b00000000000000000000000000000011 !
0@
b00000000000000000000000000000011 #
#16
b00000000000000000000000000000011 !
0@
b00000000000000000000000000000011 #
#17
b00000000000000000000000000000011 !
0@
b00000000000000000000000000000011 #
#18
b00000000000000000000000000000011 !
0@
b00000000000000000000000000000011 #
#19
b00000000000000000000000000000011 !
0@
b00000000000000000000000000000011 #
#20
b00000000000000000000000000000000 !
1@
b00000000000000000000000000000000 #
#21
b00000000000000000000000000000000 !
0@
b00000000000000000000000000000000 #
#22
b00000000000000000000000000000000 !
0@
b00000000000000000000000000000000 #
#23
b00000000000000000000000000000000 !
0@
b00000000000000000000000000000000 #
#24
b00000000000000000000000000000000 !
0@
b00000000000000000000000000000000 #
#25
b00000000000000000000000000000000 !
0@
b00000000000000000000000000000000 #
#26
b00000000000000000000000000000000 !
0@
b00000000000000000000000000000000 #
#27
b00000000000000000000000000000000 !
0@
b00000000000000000000000000000000 #
#28
b00000000000000000000000000000000 !
0@
b00000000000000000000000000000000 #
#29
b00000000000000000000000000000000 !
0@
b00000000000000000000000000000000 #
#30
b00000000000000000000000000000000 !
1@
b00000000000000000000000000000000 #
#31
b00000000000000000000000000000000 !
0@
b00000000000000000000000000000000 #
#32
b00000000000000000000000000000000 !
0@
b00000000000000000000000000000000 #
#33
b00000000000000000000000000000000 !
0@
b00000000000000000000000000000000 #
#34
b00000000000000000000000000000000 !
0@
b00000000000000000000000000000000 #
#35
b00000000000000000000000000000000 !
0@
b00000000000000000000000000000000 #
#36
b00000000000000000000000000000000 !
0@
b00000000000000000000000000000000 #
#37
b00000000000000000000000000000000 !
0@
b00000000000000000000000000000000 #
#38
b00000000000000000000000000000000 !
0@
b00000000000000000000000000000000 #
#39
b00000000000000000000000000000000 !
0@
b00000000000000000000000000000000 #
#40
b00000000000000000000000000000110 !
0@
b00000000000000000000000000000000 #
#41
b00000000000000000000000000000110 !
0@
b00000000000000000000000000000110 #
#42
b00000000000000000000000000000110 !
0@
b00000000000000000000000000000110 #
#43
b00000000000000000000000000000110 !
0@
b00000000000000000000000000000110 #
#44
b00000000000000000000000000000110 !
0@
b00000000000000000000000000000110 #
#45
b00000000000000000000000000000110 !
0@
b00000000000000000000000000000110 #
#46
b00000000000000000000000000000110 !
0@
b00000000000000000000000000000110 #
#47
b00000000000000000000000000000110 !
0@
b00000000000000000000000000000110 #
#48
b00000000000000000000000000000110 !
0@
b00000000000000000000000000000110 #
#49
b00000000000000000000000000000110 !
0@
b00000000000000000000000000000110 #
#50
b00000000000000000000000000000000 !
1@
b00000000000000000000000000000000 #
#51
b00000000000000000000000000000000 !
0@
b00000000000000000000000000000000 #
#52
b00000000000000000000000000000000 !
0@
b00000000000000000000000000000000 #
#53
b00000000000000000000000000000000 !
0@
b00000000000000000000000000000000 #
#54
b00000000000000000000000000000000 !
0@
b00000000000000000000000000000000 #
#55
b00000000000000000000000000000000 !
0@
b00000000000000000000000000000000 #
#56
b00000000000000000000000000000000 !
0@
b00000000000000000000000000000000 #
#57
b00000000000000000000000000000000 !
0@
b00000000000000000000000000000000 #
#58
b00000000000000000000000000000000 !
0@
b00000000000000000000000000000000 #
#59
b00000000000000000000000000000000 !
0@
b00000000000000000000000000000000 #
#60
b00000000000000000000000000000000 !
1@
b00000000000000000000000000000000 #
#61
b00000000000000000000000000000000 !
0@
b00000000000000000000000000000000 #
#62
b00000000000000000000000000000000 !
0@
b00000000000000000000000000000000 #
#63
b00000000000000000000000000000000 !
0@
b00000000000000000000000000000000 #
#64
b00000000000000000000000000000000 !
0@
b00000000000000000000000000000000 #
#65
b00000000000000000000000000000000 !
0@
b00000000000000000000000000000000 #
#66
b00000000000000000000000000000000 !
0@
b00000000000000000000000000000000 #
#67
b00000000000000000000000000000000 !
0@
b00000000000000000000000000000000 #
#68
b00000000000000000000000000000000 !
0@
b00000000000000000000000000000000 #
#69
b00000000000000000000000000000000 !
0@
b00000000000000000000000000000000 #
#70
b00000000000000000000000000000000 !
1@
b00000000000000000000000000000000 #
#71
b00000000000000000000000000000000 !
0@
b00000000000000000000000000000000 #
#72
b00000000000000000000000000000000 !
0@
b00000000000000000000000000000000 #
#73
b00000000000000000000000000000000 !
0@
b00000000000000000000000000000000 #
#74
b00000000000000000000000000000000 !
0@
b00000000000000000000000000000000 #
#75
b00000000000000000000000000000000 !
0@
b00000000000000000000000000000000 #
#76
b00000000000000000000000000000000 !
0@
b00000000000000000000000000000000 #
#77
b00000000000000000000000000000000 !
0@
b00000000000000000000000000000000 #
#78
b00000000000000000000000000000000 !
0@
b00000000000000000000000000000000 #
#79
b00000000000000000000000000000000 !
0@
b00000000000000000000000000000000 #
#80
b00000000000000000000000000000011 !
0@
b00000000000000000000000000000000 #
#81
b00000000000000000000000000000011 !
0@
b00000000000000000000000000000011 #
#82
b00000000000000000000000000000011 !
0@
b00000000000000000000000000000011 #
#83
b00000000000000000000000000000011 !
0@
b00000000000000000000000000000011 #
#84
b00000000000000000000000000000011 !
0@
b00000000000000000000000000000011 #
#85
b00000000000000000000000000000011 !
0@
b00000000000000000000000000000011 #
#86
b00000000000000000000000000000011 !
0@
b00000000000000000000000000000011 #
#87
b00000000000000000000000000000011 !
0@
b00000000000000000000000000000011 #
#88
b00000000000000000000000000000011 !
0@
b00000000000000000000000000000011 #
#89
b00000000000000000000000000000011 !
0@
b00000000000000000000000000000011 #
#90
b00000000000000000000000000000000 !
0@
b00000000000000000000000000000011 #
#91
b00000000000000000000000000000000 !
0@
b00000000000000000000000000000000 #
#92
b00000000000000000000000000000000 !
0@
b00000000000000000000000000000000 #
#93
b00000000000000000000000000000000 !
0@
b00000000000000000000000000000000 #
#94
b00000000000000000000000000000000 !
0@
b00000000000000000000000000000000 #
#95
b00000000000000000000000000000000 !
0@
b00000000000000000000000000000000 #
#96
b00000000000000000000000000000000 !
0@
b00000000000000000000000000000000 #
#97
b00000000000000000000000000000000 !
0@
b00000000000000000000000000000000 #
#98
b00000000000000000000000000000000 !
0@
b00000000000000000000000000000000 #
#99
b00000000000000000000000000000000 !
0@
b00000000000000000000000000000000 #
